\relax 
\@writefile{toc}{\contentsline {section}{\numberline {1}Editierdistanz mit CUDA}{1}}
\@writefile{toc}{\contentsline {subsection}{\numberline {1.1}Implementierung mit nur einem Thread-Block}{1}}
\newlabel{implementierung}{{1.1}{1}}
\@writefile{toc}{\contentsline {subsection}{\numberline {1.2}Verwendung mehrerer Thread-Bl\IeC {\"o}cke + d}{1}}
\@writefile{toc}{\contentsline {subsection}{\numberline {1.3}Rechenbeispiel}{1}}
\bibstyle{named}
\bibdata{labor6}
\@writefile{toc}{\contentsline {subsection}{\numberline {1.4}M\IeC {\"o}glichkeit den Speicherverbrauch zu senken}{2}}
\@writefile{toc}{\contentsline {section}{\numberline {2}Weihnachtsaufgabe}{2}}
\@writefile{toc}{\contentsline {subsection}{\numberline {2.1}Wer hat Recht?}{2}}
\@writefile{toc}{\contentsline {subsection}{\numberline {2.2}Wie viel Zeit mit 2 bzw. 3 Zus\IeC {\"a}tzlichen Schlitten n\IeC {\"o}tig w\IeC {\"a}re}{2}}
\@writefile{toc}{\contentsline {subsection}{\numberline {2.3}Wie viele Schlitten n\IeC {\"o}tig w\IeC {\"a}ren, um in 4 bzw. 3 Stunden fertig zu werden?}{2}}
\@writefile{toc}{\contentsline {subsection}{\numberline {2.4}Wie viele Kinder k\IeC {\"o}nnen mit 4 Schlitten in 20 Stunden beliefert werden?}{2}}
\@writefile{toc}{\contentsline {subsection}{\numberline {2.5}Wie viele Schlitten w\IeC {\"a}ren n\IeC {\"o}tig, um in 24 Stunden 2 Mrd. Kinder zu beliefern?}{2}}
